﻿Time			Description			Amount		Total

03.04.2019 17:45:24	Sularaha sissemakse		5		1505
10.04.2019 17:45:37	Sularaha väljamakse		-10		1495
01.05.2019 17:45:51	Sularaha väljamakse		-50		1445
02.05.2019 17:46:01	Sularaha väljamakse		-10		1435
03.05.2019 17:46:11	Sularaha sissemakse		20		1455
03.05.2019 17:46:21	Sularaha sissemakse		50		1505
03.05.2019 18:31:38	Sularaha väljamakse		-10		1495
04.05.2019 12:19:34	Sularaha sissemakse		2		1497
04.05.2019 12:26:25	Sularaha sissemakse		20		1517
04.05.2019 16:28:58	Sularaha väljamakse		-20		1540
06.05.2019 10:11:37	Sularaha väljamakse		-5		1605
06.05.2019 10:13:09	Sularaha sissemakse		20		1625
06.05.2019 10:15:27	Sularaha väljamakse		-20		1605
06.05.2019 10:15:55	Sularaha väljamakse		-30		1575
06.05.2019 10:16:51	Sularaha väljamakse		-5		1570
06.05.2019 10:17:05	Sularaha väljamakse		-10		1560
